{
  "info": {
    "title": "PHP-CRUD-API",
    "version": "1.0.0"
  },
  "x-stoplight": {
    "id": "e6sulewozpotl"
  },
  "openapi": "3.0.0",
  "servers": [
    {
      "url": "http://localhost:9002"
    }
  ],
  "paths": {
    "/records/Cinema": {
      "get": {
        "parameters": [
          {
            "$ref": "#/components/parameters/filter"
          },
          {
            "$ref": "#/components/parameters/include"
          },
          {
            "$ref": "#/components/parameters/exclude"
          },
          {
            "$ref": "#/components/parameters/order"
          },
          {
            "$ref": "#/components/parameters/size"
          },
          {
            "$ref": "#/components/parameters/page"
          },
          {
            "$ref": "#/components/parameters/join"
          }
        ],
        "tags": [
          "Cinema"
        ],
        "operationId": "list_Cinema",
        "description": "list Cinema",
        "responses": {
          "200": {
            "$ref": "#/components/responses/list-Cinema"
          }
        }
      },
      "post": {
        "requestBody": {
          "$ref": "#/components/requestBodies/create-Cinema"
        },
        "tags": [
          "Cinema"
        ],
        "operationId": "create_Cinema",
        "description": "create Cinema",
        "responses": {
          "200": {
            "$ref": "#/components/responses/pk_integer"
          }
        }
      }
    },
    "/records/Cinema/{id}": {
      "get": {
        "parameters": [
          {
            "$ref": "#/components/parameters/pk"
          },
          {
            "$ref": "#/components/parameters/include"
          },
          {
            "$ref": "#/components/parameters/exclude"
          },
          {
            "$ref": "#/components/parameters/join"
          }
        ],
        "tags": [
          "Cinema"
        ],
        "operationId": "read_Cinema",
        "description": "read Cinema",
        "responses": {
          "200": {
            "$ref": "#/components/responses/read-Cinema"
          }
        }
      },
      "put": {
        "parameters": [
          {
            "$ref": "#/components/parameters/pk"
          }
        ],
        "requestBody": {
          "$ref": "#/components/requestBodies/update-Cinema"
        },
        "tags": [
          "Cinema"
        ],
        "operationId": "update_Cinema",
        "description": "update Cinema",
        "responses": {
          "200": {
            "$ref": "#/components/responses/rows_affected"
          }
        }
      },
      "delete": {
        "parameters": [
          {
            "$ref": "#/components/parameters/pk"
          }
        ],
        "tags": [
          "Cinema"
        ],
        "operationId": "delete_Cinema",
        "description": "delete Cinema",
        "responses": {
          "200": {
            "$ref": "#/components/responses/rows_affected"
          }
        }
      },
      "patch": {
        "parameters": [
          {
            "$ref": "#/components/parameters/pk"
          }
        ],
        "requestBody": {
          "$ref": "#/components/requestBodies/increment-Cinema"
        },
        "tags": [
          "Cinema"
        ],
        "operationId": "increment_Cinema",
        "description": "increment Cinema",
        "responses": {
          "200": {
            "$ref": "#/components/responses/rows_affected"
          }
        }
      }
    },
    "/records/Film": {
      "get": {
        "parameters": [
          {
            "$ref": "#/components/parameters/filter"
          },
          {
            "$ref": "#/components/parameters/include"
          },
          {
            "$ref": "#/components/parameters/exclude"
          },
          {
            "$ref": "#/components/parameters/order"
          },
          {
            "$ref": "#/components/parameters/size"
          },
          {
            "$ref": "#/components/parameters/page"
          },
          {
            "$ref": "#/components/parameters/join"
          }
        ],
        "tags": [
          "Film"
        ],
        "operationId": "list_Film",
        "description": "list Film",
        "responses": {
          "200": {
            "$ref": "#/components/responses/list-Film"
          }
        }
      },
      "post": {
        "requestBody": {
          "$ref": "#/components/requestBodies/create-Film"
        },
        "tags": [
          "Film"
        ],
        "operationId": "create_Film",
        "description": "create Film",
        "responses": {
          "200": {
            "$ref": "#/components/responses/pk_string"
          }
        }
      }
    },
    "/records/Film/{id}": {
      "get": {
        "parameters": [
          {
            "$ref": "#/components/parameters/pk"
          },
          {
            "$ref": "#/components/parameters/include"
          },
          {
            "$ref": "#/components/parameters/exclude"
          },
          {
            "$ref": "#/components/parameters/join"
          }
        ],
        "tags": [
          "Film"
        ],
        "operationId": "read_Film",
        "description": "read Film",
        "responses": {
          "200": {
            "$ref": "#/components/responses/read-Film"
          }
        }
      },
      "put": {
        "parameters": [
          {
            "$ref": "#/components/parameters/pk"
          }
        ],
        "requestBody": {
          "$ref": "#/components/requestBodies/update-Film"
        },
        "tags": [
          "Film"
        ],
        "operationId": "update_Film",
        "description": "update Film",
        "responses": {
          "200": {
            "$ref": "#/components/responses/rows_affected"
          }
        }
      },
      "delete": {
        "parameters": [
          {
            "$ref": "#/components/parameters/pk"
          }
        ],
        "tags": [
          "Film"
        ],
        "operationId": "delete_Film",
        "description": "delete Film",
        "responses": {
          "200": {
            "$ref": "#/components/responses/rows_affected"
          }
        }
      },
      "patch": {
        "parameters": [
          {
            "$ref": "#/components/parameters/pk"
          }
        ],
        "requestBody": {
          "$ref": "#/components/requestBodies/increment-Film"
        },
        "tags": [
          "Film"
        ],
        "operationId": "increment_Film",
        "description": "increment Film",
        "responses": {
          "200": {
            "$ref": "#/components/responses/rows_affected"
          }
        }
      }
    },
    "/records/Personne": {
      "get": {
        "parameters": [
          {
            "$ref": "#/components/parameters/filter"
          },
          {
            "$ref": "#/components/parameters/include"
          },
          {
            "$ref": "#/components/parameters/exclude"
          },
          {
            "$ref": "#/components/parameters/order"
          },
          {
            "$ref": "#/components/parameters/size"
          },
          {
            "$ref": "#/components/parameters/page"
          },
          {
            "$ref": "#/components/parameters/join"
          }
        ],
        "tags": [
          "Personne"
        ],
        "operationId": "list_Personne",
        "description": "list Personne",
        "responses": {
          "200": {
            "$ref": "#/components/responses/list-Personne"
          }
        }
      },
      "post": {
        "requestBody": {
          "$ref": "#/components/requestBodies/create-Personne"
        },
        "tags": [
          "Personne"
        ],
        "operationId": "create_Personne",
        "description": "create Personne",
        "responses": {
          "200": {
            "$ref": "#/components/responses/pk_string"
          }
        }
      }
    },
    "/records/Personne/{id}": {
      "get": {
        "parameters": [
          {
            "$ref": "#/components/parameters/pk"
          },
          {
            "$ref": "#/components/parameters/include"
          },
          {
            "$ref": "#/components/parameters/exclude"
          },
          {
            "$ref": "#/components/parameters/join"
          }
        ],
        "tags": [
          "Personne"
        ],
        "operationId": "read_Personne",
        "description": "read Personne",
        "responses": {
          "200": {
            "$ref": "#/components/responses/read-Personne"
          }
        }
      },
      "put": {
        "parameters": [
          {
            "$ref": "#/components/parameters/pk"
          }
        ],
        "requestBody": {
          "$ref": "#/components/requestBodies/update-Personne"
        },
        "tags": [
          "Personne"
        ],
        "operationId": "update_Personne",
        "description": "update Personne",
        "responses": {
          "200": {
            "$ref": "#/components/responses/rows_affected"
          }
        }
      },
      "delete": {
        "parameters": [
          {
            "$ref": "#/components/parameters/pk"
          }
        ],
        "tags": [
          "Personne"
        ],
        "operationId": "delete_Personne",
        "description": "delete Personne",
        "responses": {
          "200": {
            "$ref": "#/components/responses/rows_affected"
          }
        }
      },
      "patch": {
        "parameters": [
          {
            "$ref": "#/components/parameters/pk"
          }
        ],
        "requestBody": {
          "$ref": "#/components/requestBodies/increment-Personne"
        },
        "tags": [
          "Personne"
        ],
        "operationId": "increment_Personne",
        "description": "increment Personne",
        "responses": {
          "200": {
            "$ref": "#/components/responses/rows_affected"
          }
        }
      }
    },
    "/status/ping": {
      "get": {
        "tags": [
          "status"
        ],
        "operationId": "ping_status",
        "description": "Request API 'ping' status",
        "responses": {
          "200": {
            "$ref": "#/components/responses/ping-status"
          }
        }
      }
    }
  },
  "components": {
    "responses": {
      "pk_integer": {
        "description": "inserted primary key value (integer)",
        "content": {
          "application/json": {
            "schema": {
              "type": "integer",
              "format": "int64"
            }
          }
        }
      },
      "pk_string": {
        "description": "inserted primary key value (string)",
        "content": {
          "application/json": {
            "schema": {
              "type": "string",
              "format": "uuid"
            }
          }
        }
      },
      "rows_affected": {
        "description": "number of rows affected (integer)",
        "content": {
          "application/json": {
            "schema": {
              "type": "integer",
              "format": "int64"
            }
          }
        }
      },
      "list-Cinema": {
        "description": "list of Cinema records",
        "content": {
          "application/json": {
            "schema": {
              "$ref": "#/components/schemas/list-Cinema"
            }
          }
        }
      },
      "read-Cinema": {
        "description": "single Cinema record",
        "content": {
          "application/json": {
            "schema": {
              "$ref": "#/components/schemas/read-Cinema"
            }
          }
        }
      },
      "list-Film": {
        "description": "list of Film records",
        "content": {
          "application/json": {
            "schema": {
              "$ref": "#/components/schemas/list-Film"
            }
          }
        }
      },
      "read-Film": {
        "description": "single Film record",
        "content": {
          "application/json": {
            "schema": {
              "$ref": "#/components/schemas/read-Film"
            }
          }
        }
      },
      "list-Personne": {
        "description": "list of Personne records",
        "content": {
          "application/json": {
            "schema": {
              "$ref": "#/components/schemas/list-Personne"
            }
          }
        }
      },
      "read-Personne": {
        "description": "single Personne record",
        "content": {
          "application/json": {
            "schema": {
              "$ref": "#/components/schemas/read-Personne"
            }
          }
        }
      },
      "ping-status": {
        "description": "ping status record",
        "content": {
          "application/json": {
            "schema": {
              "$ref": "#/components/schemas/ping-status"
            }
          }
        }
      }
    },
    "schemas": {
      "list-Cinema": {
        "type": "object",
        "properties": {
          "results": {
            "type": "integer",
            "format": "int64"
          },
          "records": {
            "type": "array",
            "items": {
              "type": "object",
              "properties": {
                "id": {
                  "type": "integer",
                  "format": "int32",
                  "pattern": "^-?[0-9]{1,10}$",
                  "x-primary-key": true,
                  "x-referenced": []
                },
                "nom": {
                  "type": "string",
                  "maxLength": 60,
                  "nullable": true,
                  "pattern": "^.{0,60}$"
                },
                "voie": {
                  "type": "string",
                  "maxLength": 60,
                  "nullable": true,
                  "pattern": "^.{0,60}$"
                },
                "codepostal": {
                  "type": "string",
                  "maxLength": 8,
                  "nullable": true,
                  "pattern": "^.{0,8}$"
                },
                "ville": {
                  "type": "string",
                  "maxLength": 40,
                  "nullable": true,
                  "pattern": "^.{0,40}$"
                },
                "coordonnees": {
                  "type": "string",
                  "format": "geometry",
                  "nullable": true,
                  "pattern": "^(POINT|LINESTRING|POLYGON|MULTIPOINT|MULTILINESTRING|MULTIPOLYGON)\\s*\\(.*$"
                },
                "created_at": {
                  "type": "string",
                  "format": "date-time",
                  "pattern": "^[0-9]{4}-[0-9]{2}-[0-9]{2} [0-9]{2}:[0-9]{2}:[0-9]{2}$"
                },
                "updated_at": {
                  "type": "string",
                  "format": "date-time",
                  "nullable": true,
                  "pattern": "^[0-9]{4}-[0-9]{2}-[0-9]{2} [0-9]{2}:[0-9]{2}:[0-9]{2}$"
                }
              }
            }
          }
        },
        "x-stoplight": {
          "id": "jes6ctxmqxlvh"
        }
      },
      "create-Cinema": {
        "type": "object",
        "properties": {
          "id": {
            "type": "integer",
            "format": "int32",
            "pattern": "^-?[0-9]{1,10}$",
            "x-primary-key": true,
            "x-referenced": []
          },
          "nom": {
            "type": "string",
            "maxLength": 60,
            "nullable": true,
            "pattern": "^.{0,60}$"
          },
          "voie": {
            "type": "string",
            "maxLength": 60,
            "nullable": true,
            "pattern": "^.{0,60}$"
          },
          "codepostal": {
            "type": "string",
            "maxLength": 8,
            "nullable": true,
            "pattern": "^.{0,8}$"
          },
          "ville": {
            "type": "string",
            "maxLength": 40,
            "nullable": true,
            "pattern": "^.{0,40}$"
          },
          "coordonnees": {
            "type": "string",
            "format": "geometry",
            "nullable": true,
            "pattern": "^(POINT|LINESTRING|POLYGON|MULTIPOINT|MULTILINESTRING|MULTIPOLYGON)\\s*\\(.*$"
          },
          "created_at": {
            "type": "string",
            "format": "date-time",
            "pattern": "^[0-9]{4}-[0-9]{2}-[0-9]{2} [0-9]{2}:[0-9]{2}:[0-9]{2}$"
          },
          "updated_at": {
            "type": "string",
            "format": "date-time",
            "nullable": true,
            "pattern": "^[0-9]{4}-[0-9]{2}-[0-9]{2} [0-9]{2}:[0-9]{2}:[0-9]{2}$"
          }
        },
        "x-stoplight": {
          "id": "5umdjwt6ufyiu"
        }
      },
      "read-Cinema": {
        "type": "object",
        "properties": {
          "id": {
            "type": "integer",
            "format": "int32",
            "pattern": "^-?[0-9]{1,10}$",
            "x-primary-key": true,
            "x-referenced": []
          },
          "nom": {
            "type": "string",
            "maxLength": 60,
            "nullable": true,
            "pattern": "^.{0,60}$"
          },
          "voie": {
            "type": "string",
            "maxLength": 60,
            "nullable": true,
            "pattern": "^.{0,60}$"
          },
          "codepostal": {
            "type": "string",
            "maxLength": 8,
            "nullable": true,
            "pattern": "^.{0,8}$"
          },
          "ville": {
            "type": "string",
            "maxLength": 40,
            "nullable": true,
            "pattern": "^.{0,40}$"
          },
          "coordonnees": {
            "type": "string",
            "format": "geometry",
            "nullable": true,
            "pattern": "^(POINT|LINESTRING|POLYGON|MULTIPOINT|MULTILINESTRING|MULTIPOLYGON)\\s*\\(.*$"
          },
          "created_at": {
            "type": "string",
            "format": "date-time",
            "pattern": "^[0-9]{4}-[0-9]{2}-[0-9]{2} [0-9]{2}:[0-9]{2}:[0-9]{2}$"
          },
          "updated_at": {
            "type": "string",
            "format": "date-time",
            "nullable": true,
            "pattern": "^[0-9]{4}-[0-9]{2}-[0-9]{2} [0-9]{2}:[0-9]{2}:[0-9]{2}$"
          }
        },
        "x-stoplight": {
          "id": "1aqr3stzkhr4a"
        }
      },
      "update-Cinema": {
        "type": "object",
        "properties": {
          "id": {
            "type": "integer",
            "format": "int32",
            "pattern": "^-?[0-9]{1,10}$",
            "x-primary-key": true,
            "x-referenced": []
          },
          "nom": {
            "type": "string",
            "maxLength": 60,
            "nullable": true,
            "pattern": "^.{0,60}$"
          },
          "voie": {
            "type": "string",
            "maxLength": 60,
            "nullable": true,
            "pattern": "^.{0,60}$"
          },
          "codepostal": {
            "type": "string",
            "maxLength": 8,
            "nullable": true,
            "pattern": "^.{0,8}$"
          },
          "ville": {
            "type": "string",
            "maxLength": 40,
            "nullable": true,
            "pattern": "^.{0,40}$"
          },
          "coordonnees": {
            "type": "string",
            "format": "geometry",
            "nullable": true,
            "pattern": "^(POINT|LINESTRING|POLYGON|MULTIPOINT|MULTILINESTRING|MULTIPOLYGON)\\s*\\(.*$"
          },
          "created_at": {
            "type": "string",
            "format": "date-time",
            "pattern": "^[0-9]{4}-[0-9]{2}-[0-9]{2} [0-9]{2}:[0-9]{2}:[0-9]{2}$"
          },
          "updated_at": {
            "type": "string",
            "format": "date-time",
            "nullable": true,
            "pattern": "^[0-9]{4}-[0-9]{2}-[0-9]{2} [0-9]{2}:[0-9]{2}:[0-9]{2}$"
          }
        },
        "x-stoplight": {
          "id": "csd6pw2l1tjki"
        }
      },
      "increment-Cinema": {
        "type": "object",
        "properties": {
          "id": {
            "type": "integer",
            "format": "int32",
            "pattern": "^-?[0-9]{1,10}$",
            "x-primary-key": true,
            "x-referenced": []
          },
          "nom": {
            "type": "string",
            "maxLength": 60,
            "nullable": true,
            "pattern": "^.{0,60}$"
          },
          "voie": {
            "type": "string",
            "maxLength": 60,
            "nullable": true,
            "pattern": "^.{0,60}$"
          },
          "codepostal": {
            "type": "string",
            "maxLength": 8,
            "nullable": true,
            "pattern": "^.{0,8}$"
          },
          "ville": {
            "type": "string",
            "maxLength": 40,
            "nullable": true,
            "pattern": "^.{0,40}$"
          },
          "coordonnees": {
            "type": "string",
            "format": "geometry",
            "nullable": true,
            "pattern": "^(POINT|LINESTRING|POLYGON|MULTIPOINT|MULTILINESTRING|MULTIPOLYGON)\\s*\\(.*$"
          },
          "created_at": {
            "type": "string",
            "format": "date-time",
            "pattern": "^[0-9]{4}-[0-9]{2}-[0-9]{2} [0-9]{2}:[0-9]{2}:[0-9]{2}$"
          },
          "updated_at": {
            "type": "string",
            "format": "date-time",
            "nullable": true,
            "pattern": "^[0-9]{4}-[0-9]{2}-[0-9]{2} [0-9]{2}:[0-9]{2}:[0-9]{2}$"
          }
        },
        "x-stoplight": {
          "id": "wipwtnruguyza"
        }
      },
      "list-Film": {
        "type": "object",
        "properties": {
          "results": {
            "type": "integer",
            "format": "int64"
          },
          "records": {
            "type": "array",
            "items": {
              "type": "object",
              "properties": {
                "id": {
                  "type": "string",
                  "format": "large-string",
                  "pattern": "^.*$",
                  "x-primary-key": true,
                  "x-referenced": []
                },
                "titre": {
                  "type": "string",
                  "maxLength": 80,
                  "pattern": "^.{0,80}$"
                },
                "titre_original": {
                  "type": "string",
                  "maxLength": 80,
                  "nullable": true,
                  "pattern": "^.{0,80}$"
                },
                "annee": {
                  "type": "integer",
                  "format": "int32",
                  "nullable": true,
                  "pattern": "^-?[0-9]{1,10}$"
                },
                "sortie": {
                  "type": "string",
                  "format": "date",
                  "nullable": true,
                  "pattern": "^[0-9]{4}-[0-9]{2}-[0-9]{2}$"
                },
                "duree": {
                  "type": "integer",
                  "format": "int32",
                  "nullable": true,
                  "pattern": "^-?[0-9]{1,10}$"
                },
                "created_at": {
                  "type": "string",
                  "format": "date-time",
                  "pattern": "^[0-9]{4}-[0-9]{2}-[0-9]{2} [0-9]{2}:[0-9]{2}:[0-9]{2}$"
                },
                "updated_at": {
                  "type": "string",
                  "format": "date-time",
                  "nullable": true,
                  "pattern": "^[0-9]{4}-[0-9]{2}-[0-9]{2} [0-9]{2}:[0-9]{2}:[0-9]{2}$"
                }
              }
            }
          }
        },
        "x-stoplight": {
          "id": "ksltcnkh5rc9n"
        }
      },
      "create-Film": {
        "type": "object",
        "properties": {
          "id": {
            "type": "string",
            "format": "large-string",
            "pattern": "^.*$",
            "x-primary-key": true,
            "x-referenced": []
          },
          "titre": {
            "type": "string",
            "maxLength": 80,
            "pattern": "^.{0,80}$"
          },
          "titre_original": {
            "type": "string",
            "maxLength": 80,
            "nullable": true,
            "pattern": "^.{0,80}$"
          },
          "annee": {
            "type": "integer",
            "format": "int32",
            "nullable": true,
            "pattern": "^-?[0-9]{1,10}$"
          },
          "sortie": {
            "type": "string",
            "format": "date",
            "nullable": true,
            "pattern": "^[0-9]{4}-[0-9]{2}-[0-9]{2}$"
          },
          "duree": {
            "type": "integer",
            "format": "int32",
            "nullable": true,
            "pattern": "^-?[0-9]{1,10}$"
          },
          "created_at": {
            "type": "string",
            "format": "date-time",
            "pattern": "^[0-9]{4}-[0-9]{2}-[0-9]{2} [0-9]{2}:[0-9]{2}:[0-9]{2}$"
          },
          "updated_at": {
            "type": "string",
            "format": "date-time",
            "nullable": true,
            "pattern": "^[0-9]{4}-[0-9]{2}-[0-9]{2} [0-9]{2}:[0-9]{2}:[0-9]{2}$"
          }
        },
        "x-stoplight": {
          "id": "sow2q3aj7m4lw"
        }
      },
      "read-Film": {
        "type": "object",
        "properties": {
          "id": {
            "type": "string",
            "format": "large-string",
            "pattern": "^.*$",
            "x-primary-key": true,
            "x-referenced": []
          },
          "titre": {
            "type": "string",
            "maxLength": 80,
            "pattern": "^.{0,80}$"
          },
          "titre_original": {
            "type": "string",
            "maxLength": 80,
            "nullable": true,
            "pattern": "^.{0,80}$"
          },
          "annee": {
            "type": "integer",
            "format": "int32",
            "nullable": true,
            "pattern": "^-?[0-9]{1,10}$"
          },
          "sortie": {
            "type": "string",
            "format": "date",
            "nullable": true,
            "pattern": "^[0-9]{4}-[0-9]{2}-[0-9]{2}$"
          },
          "duree": {
            "type": "integer",
            "format": "int32",
            "nullable": true,
            "pattern": "^-?[0-9]{1,10}$"
          },
          "created_at": {
            "type": "string",
            "format": "date-time",
            "pattern": "^[0-9]{4}-[0-9]{2}-[0-9]{2} [0-9]{2}:[0-9]{2}:[0-9]{2}$"
          },
          "updated_at": {
            "type": "string",
            "format": "date-time",
            "nullable": true,
            "pattern": "^[0-9]{4}-[0-9]{2}-[0-9]{2} [0-9]{2}:[0-9]{2}:[0-9]{2}$"
          }
        },
        "x-stoplight": {
          "id": "y665j7n75tc79"
        }
      },
      "update-Film": {
        "type": "object",
        "properties": {
          "id": {
            "type": "string",
            "format": "large-string",
            "pattern": "^.*$",
            "x-primary-key": true,
            "x-referenced": []
          },
          "titre": {
            "type": "string",
            "maxLength": 80,
            "pattern": "^.{0,80}$"
          },
          "titre_original": {
            "type": "string",
            "maxLength": 80,
            "nullable": true,
            "pattern": "^.{0,80}$"
          },
          "annee": {
            "type": "integer",
            "format": "int32",
            "nullable": true,
            "pattern": "^-?[0-9]{1,10}$"
          },
          "sortie": {
            "type": "string",
            "format": "date",
            "nullable": true,
            "pattern": "^[0-9]{4}-[0-9]{2}-[0-9]{2}$"
          },
          "duree": {
            "type": "integer",
            "format": "int32",
            "nullable": true,
            "pattern": "^-?[0-9]{1,10}$"
          },
          "created_at": {
            "type": "string",
            "format": "date-time",
            "pattern": "^[0-9]{4}-[0-9]{2}-[0-9]{2} [0-9]{2}:[0-9]{2}:[0-9]{2}$"
          },
          "updated_at": {
            "type": "string",
            "format": "date-time",
            "nullable": true,
            "pattern": "^[0-9]{4}-[0-9]{2}-[0-9]{2} [0-9]{2}:[0-9]{2}:[0-9]{2}$"
          }
        },
        "x-stoplight": {
          "id": "cdf3zxqkhfm6x"
        }
      },
      "increment-Film": {
        "type": "object",
        "properties": {
          "id": {
            "type": "string",
            "format": "large-string",
            "pattern": "^.*$",
            "x-primary-key": true,
            "x-referenced": []
          },
          "titre": {
            "type": "string",
            "maxLength": 80,
            "pattern": "^.{0,80}$"
          },
          "titre_original": {
            "type": "string",
            "maxLength": 80,
            "nullable": true,
            "pattern": "^.{0,80}$"
          },
          "annee": {
            "type": "integer",
            "format": "int32",
            "nullable": true,
            "pattern": "^-?[0-9]{1,10}$"
          },
          "sortie": {
            "type": "string",
            "format": "date",
            "nullable": true,
            "pattern": "^[0-9]{4}-[0-9]{2}-[0-9]{2}$"
          },
          "duree": {
            "type": "integer",
            "format": "int32",
            "nullable": true,
            "pattern": "^-?[0-9]{1,10}$"
          },
          "created_at": {
            "type": "string",
            "format": "date-time",
            "pattern": "^[0-9]{4}-[0-9]{2}-[0-9]{2} [0-9]{2}:[0-9]{2}:[0-9]{2}$"
          },
          "updated_at": {
            "type": "string",
            "format": "date-time",
            "nullable": true,
            "pattern": "^[0-9]{4}-[0-9]{2}-[0-9]{2} [0-9]{2}:[0-9]{2}:[0-9]{2}$"
          }
        },
        "x-stoplight": {
          "id": "d5cz9z3hiuoy6"
        }
      },
      "list-Personne": {
        "type": "object",
        "properties": {
          "results": {
            "type": "integer",
            "format": "int64"
          },
          "records": {
            "type": "array",
            "items": {
              "type": "object",
              "properties": {
                "id": {
                  "type": "string",
                  "format": "large-string",
                  "pattern": "^.*$",
                  "x-primary-key": true,
                  "x-referenced": []
                },
                "nom": {
                  "type": "string",
                  "maxLength": 30,
                  "pattern": "^.{0,30}$"
                },
                "prenom": {
                  "type": "string",
                  "maxLength": 30,
                  "pattern": "^.{0,30}$"
                },
                "naissance": {
                  "type": "string",
                  "format": "date",
                  "nullable": true,
                  "pattern": "^[0-9]{4}-[0-9]{2}-[0-9]{2}$"
                },
                "deces": {
                  "type": "string",
                  "format": "date",
                  "nullable": true,
                  "pattern": "^[0-9]{4}-[0-9]{2}-[0-9]{2}$"
                },
                "artiste": {
                  "type": "string",
                  "maxLength": 30,
                  "nullable": true,
                  "pattern": "^.{0,30}$"
                },
                "nationalite": {
                  "type": "string",
                  "maxLength": 2,
                  "nullable": true,
                  "pattern": "^.{0,2}$"
                },
                "created_at": {
                  "type": "string",
                  "format": "date-time",
                  "pattern": "^[0-9]{4}-[0-9]{2}-[0-9]{2} [0-9]{2}:[0-9]{2}:[0-9]{2}$"
                },
                "updated_at": {
                  "type": "string",
                  "format": "date-time",
                  "nullable": true,
                  "pattern": "^[0-9]{4}-[0-9]{2}-[0-9]{2} [0-9]{2}:[0-9]{2}:[0-9]{2}$"
                }
              }
            }
          }
        },
        "x-stoplight": {
          "id": "xqqz1bnv42905"
        }
      },
      "create-Personne": {
        "type": "object",
        "properties": {
          "id": {
            "type": "string",
            "format": "large-string",
            "pattern": "^.*$",
            "x-primary-key": true,
            "x-referenced": []
          },
          "nom": {
            "type": "string",
            "maxLength": 30,
            "pattern": "^.{0,30}$"
          },
          "prenom": {
            "type": "string",
            "maxLength": 30,
            "pattern": "^.{0,30}$"
          },
          "naissance": {
            "type": "string",
            "format": "date",
            "nullable": true,
            "pattern": "^[0-9]{4}-[0-9]{2}-[0-9]{2}$"
          },
          "deces": {
            "type": "string",
            "format": "date",
            "nullable": true,
            "pattern": "^[0-9]{4}-[0-9]{2}-[0-9]{2}$"
          },
          "artiste": {
            "type": "string",
            "maxLength": 30,
            "nullable": true,
            "pattern": "^.{0,30}$"
          },
          "nationalite": {
            "type": "string",
            "maxLength": 2,
            "nullable": true,
            "pattern": "^.{0,2}$"
          },
          "created_at": {
            "type": "string",
            "format": "date-time",
            "pattern": "^[0-9]{4}-[0-9]{2}-[0-9]{2} [0-9]{2}:[0-9]{2}:[0-9]{2}$"
          },
          "updated_at": {
            "type": "string",
            "format": "date-time",
            "nullable": true,
            "pattern": "^[0-9]{4}-[0-9]{2}-[0-9]{2} [0-9]{2}:[0-9]{2}:[0-9]{2}$"
          }
        },
        "x-stoplight": {
          "id": "no2toa042kued"
        }
      },
      "read-Personne": {
        "type": "object",
        "properties": {
          "id": {
            "type": "string",
            "format": "large-string",
            "pattern": "^.*$",
            "x-primary-key": true,
            "x-referenced": []
          },
          "nom": {
            "type": "string",
            "maxLength": 30,
            "pattern": "^.{0,30}$"
          },
          "prenom": {
            "type": "string",
            "maxLength": 30,
            "pattern": "^.{0,30}$"
          },
          "naissance": {
            "type": "string",
            "format": "date",
            "nullable": true,
            "pattern": "^[0-9]{4}-[0-9]{2}-[0-9]{2}$"
          },
          "deces": {
            "type": "string",
            "format": "date",
            "nullable": true,
            "pattern": "^[0-9]{4}-[0-9]{2}-[0-9]{2}$"
          },
          "artiste": {
            "type": "string",
            "maxLength": 30,
            "nullable": true,
            "pattern": "^.{0,30}$"
          },
          "nationalite": {
            "type": "string",
            "maxLength": 2,
            "nullable": true,
            "pattern": "^.{0,2}$"
          },
          "created_at": {
            "type": "string",
            "format": "date-time",
            "pattern": "^[0-9]{4}-[0-9]{2}-[0-9]{2} [0-9]{2}:[0-9]{2}:[0-9]{2}$"
          },
          "updated_at": {
            "type": "string",
            "format": "date-time",
            "nullable": true,
            "pattern": "^[0-9]{4}-[0-9]{2}-[0-9]{2} [0-9]{2}:[0-9]{2}:[0-9]{2}$"
          }
        },
        "x-stoplight": {
          "id": "z7dg4c1b2xucy"
        }
      },
      "update-Personne": {
        "type": "object",
        "properties": {
          "id": {
            "type": "string",
            "format": "large-string",
            "pattern": "^.*$",
            "x-primary-key": true,
            "x-referenced": []
          },
          "nom": {
            "type": "string",
            "maxLength": 30,
            "pattern": "^.{0,30}$"
          },
          "prenom": {
            "type": "string",
            "maxLength": 30,
            "pattern": "^.{0,30}$"
          },
          "naissance": {
            "type": "string",
            "format": "date",
            "nullable": true,
            "pattern": "^[0-9]{4}-[0-9]{2}-[0-9]{2}$"
          },
          "deces": {
            "type": "string",
            "format": "date",
            "nullable": true,
            "pattern": "^[0-9]{4}-[0-9]{2}-[0-9]{2}$"
          },
          "artiste": {
            "type": "string",
            "maxLength": 30,
            "nullable": true,
            "pattern": "^.{0,30}$"
          },
          "nationalite": {
            "type": "string",
            "maxLength": 2,
            "nullable": true,
            "pattern": "^.{0,2}$"
          },
          "created_at": {
            "type": "string",
            "format": "date-time",
            "pattern": "^[0-9]{4}-[0-9]{2}-[0-9]{2} [0-9]{2}:[0-9]{2}:[0-9]{2}$"
          },
          "updated_at": {
            "type": "string",
            "format": "date-time",
            "nullable": true,
            "pattern": "^[0-9]{4}-[0-9]{2}-[0-9]{2} [0-9]{2}:[0-9]{2}:[0-9]{2}$"
          }
        },
        "x-stoplight": {
          "id": "gx121nxdk948m"
        }
      },
      "increment-Personne": {
        "type": "object",
        "properties": {
          "id": {
            "type": "string",
            "format": "large-string",
            "pattern": "^.*$",
            "x-primary-key": true,
            "x-referenced": []
          },
          "nom": {
            "type": "string",
            "maxLength": 30,
            "pattern": "^.{0,30}$"
          },
          "prenom": {
            "type": "string",
            "maxLength": 30,
            "pattern": "^.{0,30}$"
          },
          "naissance": {
            "type": "string",
            "format": "date",
            "nullable": true,
            "pattern": "^[0-9]{4}-[0-9]{2}-[0-9]{2}$"
          },
          "deces": {
            "type": "string",
            "format": "date",
            "nullable": true,
            "pattern": "^[0-9]{4}-[0-9]{2}-[0-9]{2}$"
          },
          "artiste": {
            "type": "string",
            "maxLength": 30,
            "nullable": true,
            "pattern": "^.{0,30}$"
          },
          "nationalite": {
            "type": "string",
            "maxLength": 2,
            "nullable": true,
            "pattern": "^.{0,2}$"
          },
          "created_at": {
            "type": "string",
            "format": "date-time",
            "pattern": "^[0-9]{4}-[0-9]{2}-[0-9]{2} [0-9]{2}:[0-9]{2}:[0-9]{2}$"
          },
          "updated_at": {
            "type": "string",
            "format": "date-time",
            "nullable": true,
            "pattern": "^[0-9]{4}-[0-9]{2}-[0-9]{2} [0-9]{2}:[0-9]{2}:[0-9]{2}$"
          }
        },
        "x-stoplight": {
          "id": "2uwvsipluvkux"
        }
      },
      "ping-status": {
        "type": "object",
        "required": [
          "db",
          "cache"
        ],
        "properties": {
          "db": {
            "type": "integer",
            "format": "int64"
          },
          "cache": {
            "type": "integer",
            "format": "int64"
          }
        },
        "x-stoplight": {
          "id": "kf913yvhqnclt"
        }
      }
    },
    "requestBodies": {
      "create-Cinema": {
        "description": "single Cinema record",
        "content": {
          "application/json": {
            "schema": {
              "$ref": "#/components/schemas/create-Cinema"
            }
          }
        }
      },
      "update-Cinema": {
        "description": "single Cinema record",
        "content": {
          "application/json": {
            "schema": {
              "$ref": "#/components/schemas/update-Cinema"
            }
          }
        }
      },
      "increment-Cinema": {
        "description": "single Cinema record",
        "content": {
          "application/json": {
            "schema": {
              "$ref": "#/components/schemas/increment-Cinema"
            }
          }
        }
      },
      "create-Film": {
        "description": "single Film record",
        "content": {
          "application/json": {
            "schema": {
              "$ref": "#/components/schemas/create-Film"
            }
          }
        }
      },
      "update-Film": {
        "description": "single Film record",
        "content": {
          "application/json": {
            "schema": {
              "$ref": "#/components/schemas/update-Film"
            }
          }
        }
      },
      "increment-Film": {
        "description": "single Film record",
        "content": {
          "application/json": {
            "schema": {
              "$ref": "#/components/schemas/increment-Film"
            }
          }
        }
      },
      "create-Personne": {
        "description": "single Personne record",
        "content": {
          "application/json": {
            "schema": {
              "$ref": "#/components/schemas/create-Personne"
            }
          }
        }
      },
      "update-Personne": {
        "description": "single Personne record",
        "content": {
          "application/json": {
            "schema": {
              "$ref": "#/components/schemas/update-Personne"
            }
          }
        }
      },
      "increment-Personne": {
        "description": "single Personne record",
        "content": {
          "application/json": {
            "schema": {
              "$ref": "#/components/schemas/increment-Personne"
            }
          }
        }
      }
    },
    "parameters": {
      "pk": {
        "name": "id",
        "in": "path",
        "schema": {
          "type": "string"
        },
        "description": "primary key value",
        "required": true
      },
      "filter": {
        "name": "filter",
        "in": "query",
        "schema": {
          "type": "array",
          "items": {
            "type": "string"
          }
        },
        "description": "Filters to be applied. Each filter consists of a column, an operator and a value (comma separated). Example: id,eq,1",
        "required": false
      },
      "include": {
        "name": "include",
        "in": "query",
        "schema": {
          "type": "string"
        },
        "description": "Columns you want to include in the output (comma separated). Example: posts.*,categories.name",
        "required": false
      },
      "exclude": {
        "name": "exclude",
        "in": "query",
        "schema": {
          "type": "string"
        },
        "description": "Columns you want to exclude from the output (comma separated). Example: posts.content",
        "required": false
      },
      "order": {
        "name": "order",
        "in": "query",
        "schema": {
          "type": "array",
          "items": {
            "type": "string"
          }
        },
        "description": "Column you want to sort on and the sort direction (comma separated). Example: id,desc",
        "required": false
      },
      "size": {
        "name": "size",
        "in": "query",
        "schema": {
          "type": "string"
        },
        "description": "Maximum number of results (for top lists). Example: 10",
        "required": false
      },
      "page": {
        "name": "page",
        "in": "query",
        "schema": {
          "type": "string"
        },
        "description": "Page number and page size (comma separated). Example: 1,10",
        "required": false
      },
      "join": {
        "name": "join",
        "in": "query",
        "schema": {
          "type": "array",
          "items": {
            "type": "string"
          }
        },
        "description": "Paths (comma separated) to related entities that you want to include. Example: comments,users",
        "required": false
      }
    }
  },
  "tags": [
    {
      "name": "Cinema",
      "description": "Cinema operations"
    },
    {
      "name": "Film",
      "description": "Film operations"
    },
    {
      "name": "Personne",
      "description": "Personne operations"
    },
    {
      "name": "status",
      "description": "status operations"
    }
  ]
}